{
  "title": "Courses",
  "model": "Courses",
  "searchExpression":"(indexof(name, '${text}') ge 0 or indexof(displayCode, '${text}') ge 0 or indexof(department/abbreviation, '${text}') ge 0 or indexof(department/name, '${text}') ge 0 or indexof(courseArea/name, '${text}') ge 0 or indexof(courseCategory/name, '${text}') ge 0)",
  "columns": [
    {
      "name":"id",
      "property": "id",
      "formatter": "ActionLinkFormatter",
      "actions" : [
        {
          "title": "Courses.Preview",
          "href": "#/courses/${id}/"
        },
        {
          "title": "Courses.Edit",
          "href": "#/courses/${id}/edit"
        }
      ]
    },
    {
      "name":"displayCode",
      "property": "displayCode",
      "title":"Courses.DisplayCode"
    },
    {
      "name":"name",
      "property": "name",
      "title":"Courses.name"
    },
    {
      "name":"department/abbreviation",
      "property": "departmentName",
      "title":"Courses.Department"
    },
    {
      "name":"courseArea/name",
      "property": "courseArea",
      "title":"Courses.courseArea"
    },
    {
      "name":"courseSector/name",
      "property": "courseSector",
      "title":"Courses.courseSector"
    },
    {
      "name":"courseCategory/name",
      "property": "courseCategory",
      "title":"Courses.courseCategory"
    }
  ],
  "defaults":{
    "filter": "((department eq ${currentDepartment}) or (department ne ${currentDepartment} and isShared eq 1)) and (isEnabled eq 1)"
  },
  "criteria": [
    {
      "name": "name",
      "filter": "(indexof(name, '${value}') ge 0)",
      "type": "text"
    },
    {
      "name": "department",
      "filter": "(department eq '${value}')",
      "type": "text"
    },
    {
      "name": "displayCode",
      "filter": "(indexof(displayCode, '${value}') ge 0)",
      "type": "text"
    },
    {
      "name": "courseStructureType",
      "filter": "(courseStructureType/id eq '${value}')",
      "type": "text"
    },
    {
      "name": "courseSector",
      "filter": "(courseSector/id eq '${value}')",
      "type": "text"
    },
    {
      "name": "courseCategory",
      "filter": "(courseCategory/id eq '${value}')",
      "type": "text"
    },
    {
      "name": "instructor",
      "filter": "(instructor/id eq '${value}')",
      "type": "text"
    },
    {
      "name": "courseArea",
      "filter": "(courseArea/id eq '${value}')",
      "type": "text"
    }
  ],
  "paths" : [
  ]
}
