{
  "model": "StudyPrograms",
  "settings": {
    "i18n": {
      "el": {
        "Name": "Ονομασία",
        "Set the name of this study program": "Ορίστε την ονομασία του προγράμματος σπουδών",
        "Set a short name": "Ορίστε μια συντομογραφία",
        "Set the degree description": "Ορίστε τον τίτλο πτυχίου που απονέμει",
        "Set the study level of this study program": "Ορίστε το επίπεδο σπουδών του προγράμματος σπουδών",
        "Recommended semesters for completion of this study program": "Ο τυπικός αριθμός εξαμήνων για την ολοκλήρωση των σπουδών",
        "Study title type": "Περιγραφή τίτλου σπουδών",
        "Degree description": "Τίτλος πτυχίου",
        "Specialization title type": "Περιγραφή κατεύθυνσης",
        "Other name": "Άλλη ονομασία",
        "Set an alternate name for study program (probably for printing)": "Ορίστε μια άλλη ονομασία για το πρόγραμμα σπουδών (πιθανόν για χρήση σε εκτυπώσεις)",
        "Set the department in which this study program is offered in.": "Ορίστε το τμήμα στο οποίο προσφέρεται το πρόγραμμα σπουδών",
        "Select if the study program will be active. This defaults to true and newly enrolled students will be assigned this study program.": "Επιλέξτε εάν το πρόγραμμα σπουδών είναι ενεργό. Ως προεπιλογή, είναι ενεργό και οι νέοι φοιτητές που εγγράφονται θα εγγράφονται σε αυτό το πρόγραμμα σπουδών.",
        "Edit the semester in which the specialty selection is required. The number should be smaller than 12. If 0 is assigned, it means that specialty selection is not required.": "Ορίστε το εξάμηνο στο οποίο πρέπει να γίνει η δήλωση κατεύθυνσης. Ο αριθμός πρέπει να είναι μικρότερος από 12. Εάν οριστεί η τιμή 0, η δήλωση κατεύθυνσης δεν είναι υποχρεωτική",
        "Edit the decimal points of the graduation grade.": "Ορίστε τον αριθμό των δεκαδικών ψηφίων του βαθμού αποφοίτησης.",
        "Select the grade scale that will be applied in this study program. This will affect grade submission and student grades.": "Επιλέξτε την κλίμακα βαθμολογίας που θα εφαρμοστεί σε αυτό το πρόγραμμα σπουδών. Αυτό θα επηρεάσει τις υποβολές βαθμολογίας και τους βαθμούς των φοιτητών",
        "Set an alternate name for study program (propably for printing)": "Ορίστε μια άλλη ονομασία για το πρόγραμμα σπουδών (πιθανόν για χρήση σε εκτυπώσεις)",
        "Access requirements | Edit": "Απαιτήσεις Εισαγωγής | Επεξεργασία",
        "Study mode | Edit": "Είδος μελέτης | Επεξεργασία",
        "Degree requirements | Edit": "Απαιτήσεις πτυχίου | Επεξεργασία",
        "Further study | Edit": "Πρόσβαση σε σπουδές | Επεξεργασία",
        "Professional status | Edit": "Επαγγελματικό καθεστως | Επεξεργασία",
        "Grading scheme | Edit": "Σύστημα βαθμολογίας | Επεξεργασία",
        "Other Info | Edit": "Συμπληρωματικές πληροφορίες | Επεξεργασία",
        "Further Info | Edit": "Άλλες πηγές πληροφοριών | Επεξεργασία",
        "Language Of Instruction | Edit":  "Γλώσσα διδασκαλίας | Επεξεργασία",
        "Study program requirements | Edit": "Προϋποθέσεις εισαγωγής στο Πρόγραμμα Σπουδών | Επεξεργασία",
        "Field of study | Edit": "Τομέας Σπουδών τίτλου | Επεξεργασία",
        "Official duration | Edit": "Επίσημη διάρκεια | Επεξεργασία",
        "Extra Information" : "Επιπλέον Πληροφορίες",
        "Maximum Allowed Semesters": "Επιτρεπόμενα εξάμηνα φοίτησης",
        "Set the maximum allowed number of semesters a student can attend in this study program": "Ορίστε το μέγιστο αριθμό εξαμήνων που μπορεί κάποιος να φοιτήσει στο πρόγραμμα σπουδών."
      }
    }
  },
  "components": [
    {
      "label": "Tabs",
      "type": "tabs",
      "key": "tabs1",
      "path": "tabs1",
      "input": false,
      "components": [
        {
          "label": "General Information",
          "components": [
            {
              "type": "fieldset",
              "components": [
                {
                  "columns": [
                    {
                      "components": [
                        {
                          "label": "Name",
                          "labelPosition": "top",
                          "widget": {
                            "type": "input"
                          },
                          "validate": {
                            "required": true
                          },
                          "key": "name",
                          "type": "textfield",
                          "description": "Set the name of this study program",
                          "input": true
                        }
                      ],
                      "width": 6
                    },
                    {
                      "components": [
                        {
                          "label": "Department",
                          "labelPosition": "top",
                          "widget": "choicesjs",
                          "dataSrc": "url",
                          "data": {
                            "url": "LocalDepartments/?$select=id,name",
                            "headers": []
                          },
                          "searchFields": [
                            "id"
                          ],
                          "searchField": "$search",
                          "template": "<span class='d-block pr-5 text-truncate'>{{ item.name }}</span>",
                          "selectThreshold": 0.3,
                          "selectValues": "value",
                          "key": "department",
                          "type": "select",
                          "valueProperty": "id",
                          "lazyLoad": false,
                          "input": true,
                          "disabled": true,
                          "hidden": true,
                          "validate": {
                            "required": false
                          },
                          "description": "Set the department in which this study program is offered in."
                        }
                      ],
                      "width": 6
                    }
                  ],
                  "customClass": "text-dark",
                  "hideLabel": true,
                  "type": "columns",
                  "input": false
                },
                {
                  "columns": [
                    {
                      "components": [
                        {
                          "label": "Degree description",
                          "labelPosition": "top",
                          "key": "info.degreeDescription",
                          "description": "Set the degree description",
                          "type": "textfield",
                          "validate": {
                            "required": true,
                            "maxLength": 150
                          }
                        }
                      ],
                      "width": 4
                    },
                    {
                      "components": [
                        {
                          "label": "Abbreviation",
                          "labelPosition": "top",
                          "validate": {
                            "required": true,
                            "maxLength": 20
                          },
                          "key": "abbreviation",
                          "type": "textfield",
                          "input": true
                        }
                      ],
                      "width": 4
                    },
                    {
                      "components": [
                        {
                          "label": "Active study program",
                          "labelPosition": "top",
                          "searchEnabled": false,
                          "data": {
                            "values": [
                              {
                                "label": "No",
                                "value": "0"
                              },
                              {
                                "label": "Yes",
                                "value": "1"
                              }
                            ]
                          },
                          "key": "isActive",
                          "dataType": "string",
                          "type": "select",
                          "input": true,
                          "validate": {
                            "required": true
                          },
                          "description": "Select if the study program will be active. This defaults to true and newly enrolled students will be assigned this study program."
                        }
                      ],
                      "width": 4
                    }
                  ],
                  "customClass": "text-dark",
                  "type": "columns",
                  "input": false
                },
                {
                  "columns": [
                    {
                      "components": [
                        {
                          "label": "Study Level",
                          "labelPosition": "top",
                          "widget": "choicesjs",
                          "dataSrc": "url",
                          "data": {
                            "url": "StudyLevels/?$select=id,name,alternateName",
                            "headers": []
                          },
                          "template": "<span class='d-block pr-5 text-truncate'>{{ item.name }}</span>",
                          "selectValues": "value",
                          "validate": {
                            "required": false
                          },
                          "key": "studyLevel",
                          "valueProperty": "id",
                          "lazyLoad": false,
                          "type": "select",
                          "input": true,
                          "disabled": true,
                          "description": "Set the study level of this study program"
                        }
                      ],
                      "width": 3
                    },
                    {
                      "components": [
                        {
                          "label": "Semesters",
                          "labelPosition": "top",
                          "widget": {
                            "type": "input"
                          },
                          "validate": {
                            "required": true,
                            "integer": true,
                            "min": 1,
                            "max": 12
                          },
                          "key": "semesters",
                          "type": "number",
                          "input": true,
                          "protected": true,
                          "description": "Recommended semesters for completion of this study program"
                        }
                      ],
                      "width": 3
                    },
                    {
                      "components": [
                        {
                          "label": "Maximum Allowed Semesters",
                          "labelPosition": "top",
                          "widget": {
                            "type": "input"
                          },
                          "validate": {
                            "required": false,
                            "integer": true,
                            "min": 0
                          },
                          "key": "info.maximumAllowedSemester",
                          "type": "number",
                          "input": true,
                          "protected": true,
                          "description": "Set the maximum allowed number of semesters a student can attend in this study program"
                        }
                      ],
                      "width": 3
                    },
                    {
                      "components": [
                        {
                          "label": "Specialty Selection Semester",
                          "labelPosition": "top",
                          "widget": "choicesjs",
                          "key": "specialtySelectionSemester",
                          "type": "number",
                          "input": true,
                          "searchEnabled": false,
                          "validate": {
                            "required": true,
                            "integer": true,
                            "min": 0,
                            "max": 12
                          },
                          "description": "Edit the semester in which the specialty selection is required. The number should be smaller than 12. If 0 is assigned, it means that specialty selection is not required."
                        }
                      ],
                      "width": 3
                    },
                    {
                      "components": [
                        {
                          "label": "Decimal digits",
                          "labelPosition": "top",
                          "widget": {
                            "type": "input"
                          },
                          "validate": {
                            "required": true,
                            "integer": true,
                            "min": 0,
                            "max": 5
                          },
                          "key": "decimalDigits",
                          "type": "number",
                          "input": true,
                          "protected": true,
                          "description": "Edit the decimal points of the graduation grade."
                        }
                      ],
                      "width": 3
                    }
                  ],
                  "customClass": "text-dark",
                  "type": "columns",
                  "input": false
                },
                {
                  "columns": [
                    {
                      "components": [
                        {
                          "label": "Grade Scale",
                          "labelPosition": "top",
                          "widget": "choicesjs",
                          "dataSrc": "url",
                          "data": {
                            "url": "GradeScales/?$select=id,name",
                            "headers": []
                          },
                          "template": "<span class='d-block pr-5 text-truncate'>{{ item.name }}</span>",
                          "searchFields": [
                            "id",
                            "name"
                          ],
                          "selectValues": "value",
                          "validate": {
                            "required": true
                          },
                          "key": "gradeScale",
                          "valueProperty": "id",
                          "lazyLoad": false,
                          "type": "select",
                          "input": true,
                          "disabled": true,
                          "description": "Select the grade scale that will be applied in this study program. This will affect grade submission and student grades."
                        }
                      ],
                      "width": 3
                    },
                    {
                      "components": [
                        {
                          "label": "Study title type",
                          "labelPosition": "top",
                          "widget": "choicesjs",
                          "dataSrc": "url",
                          "data": {
                            "url": "studyTitleTypes/?$select=id,name",
                            "headers": []
                          },
                          "template": "<span class='d-block pr-5 text-truncate'>{{ item.name }}</span>",
                          "searchFields": [
                            "id",
                            "name"
                          ],
                          "selectValues": "value",
                          "validate": {
                            "required": true
                          },
                          "key": "info.studyTitleType",
                          "lazyLoad": false,
                          "type": "select",
                          "input": true
                        }
                      ],
                      "width": 4
                    },
                    {
                      "components": [
                        {
                          "label": "Specialization title type",
                          "labelPosition": "top",
                          "widget": "choicesjs",
                          "dataSrc": "url",
                          "data": {
                            "url": "SpecializationTitleTypes/?$select=id,name",
                            "headers": []
                          },
                          "template": "<span class='d-block pr-5 text-truncate'>{{ item.name }}</span>",
                          "searchFields": [
                            "id",
                            "name"
                          ],
                          "selectValues": "value",
                          "validate": {
                            "required": true
                          },
                          "key": "info.specializationTitleType",
                          "lazyLoad": false,
                          "type": "select",
                          "input": true
                        }
                      ],
                      "width": 4
                    },
                    {
                      "components": [
                        {
                          "label": "Other name",
                          "labelPosition": "top",
                          "key": "info.otherName",
                          "description": "Set an alternate name for study program (probably for printing)",
                          "type": "textfield",
                          "validate": {
                            "required": false,
                            "maxLength": 150
                          }
                        }
                      ],
                      "width": 6
                    },
                    {
                      "components": [
                        {
                          "label": "Notes",
                          "labelPosition": "top",
                          "widget": {
                            "type": "input"
                          },
                          "validate": {
                            "required": false
                          },
                          "key": "info.notes",
                          "type": "textarea",
                          "input": true
                        }
                      ],
                      "width": 12
                    }
                    ],
                  "customClass": "text-dark",
                  "type": "columns",
                  "input": false
                }
              ]
            }
          ]
        },
        {
          "legend": "Extra Information",
          "key": "fieldSet",
          "type": "fieldset",
          "input": false,
          "label": "Extra Information",
          "components": [
            {
              "components": [
                {
                  "input": true,
                  "tableView": false,
                  "label": "Official duration",
                  "hideLabel": true,
                  "optionsLabelPosition": "left",
                  "key": "officialDurationRadio",
                  "values": [
                    {
                      "value": "edit",
                      "label": "Official duration | Edit"
                    }
                  ],
                  "inline": true,
                  "protected": false,
                  "persistent": false,
                  "hidden": false,
                  "clearOnHide": false,
                  "validate": {
                    "required": false
                  },
                  "type": "radio",
                  "conditional": {
                    "show": "",
                    "when": null,
                    "eq": ""
                  }
                },
                {
                  "label": "HTML",
                  "tag": "br",
                  "attrs": [
                    {
                      "attr": "",
                      "value": ""
                    }
                  ],
                  "refreshOnChange": false,
                  "key": "html",
                  "type": "htmlelement",
                  "input": false,
                  "tableView": false
                },
                {
                  "label": "Official duration",
                  "hideLabel": true,
                  "autoExpand": false,
                  "spellcheck": true,
                  "tableView": true,
                  "conditional": {
                    "eq": "edit",
                    "when": "officialDurationRadio",
                    "show": "true"
                  },
                  "clearOnHide": false,
                  "validate": {
                    "unique": false,
                    "multiple": false
                  },
                  "key": "info.officialDuration",
                  "type": "textarea",
                  "wysiwyg": true,
                  "rows": 1,
                  "input": true
                },
                {
                  "label": "Official duration",
                  "hideLabel": true,
                  "autoExpand": false,
                  "spellcheck": true,
                  "tableView": true,
                  "conditional": {
                    "eq": "edit",
                    "when": "officialDurationRadio",
                    "show": "false"
                  },
                  "clearOnHide": false,
                  "validate": {
                    "unique": false,
                    "multiple": false
                  },
                  "key": "info.officialDuration",
                  "type": "textarea",
                  "rows": 1,
                  "disabled": true
                }
              ],
              "width": 12
            },
            {
              "components": [
                {
                  "input": true,
                  "tableView": false,
                  "label": "Access requirements",
                  "hideLabel": true,
                  "optionsLabelPosition": "left",
                  "key": "accessRequirementsRadio",
                  "values": [
                    {
                      "value": "edit",
                      "label": "Access requirements | Edit"
                    }
                  ],
                  "inline": true,
                  "protected": false,
                  "persistent": false,
                  "hidden": false,
                  "clearOnHide": false,
                  "validate": {
                    "required": false
                  },
                  "type": "radio",
                  "conditional": {
                    "show": "",
                    "when": null,
                    "eq": ""
                  }
                },
                {
                  "label": "HTML",
                  "tag": "br",
                  "attrs": [
                    {
                      "attr": "",
                      "value": ""
                    }
                  ],
                  "refreshOnChange": false,
                  "key": "html",
                  "type": "htmlelement",
                  "input": false,
                  "tableView": false
                },
                {
                  "label": "Access requirements",
                  "hideLabel": true,
                  "autoExpand": false,
                  "spellcheck": true,
                  "tableView": true,
                  "conditional": {
                    "eq": "edit",
                    "when": "accessRequirementsRadio",
                    "show": "true"
                  },
                  "clearOnHide": false,
                  "validate": {
                    "unique": false,
                    "multiple": false
                  },
                  "key": "info.accessRequirements",
                  "type": "textarea",
                  "wysiwyg": true,
                  "rows": 1,
                  "input": true
                },
                {
                  "label": "Access requirements",
                  "hideLabel": true,
                  "autoExpand": false,
                  "spellcheck": true,
                  "tableView": true,
                  "conditional": {
                    "eq": "edit",
                    "when": "accessRequirementsRadio",
                    "show": "false"
                  },
                  "clearOnHide": false,
                  "validate": {
                    "unique": false,
                    "multiple": false
                  },
                  "key": "info.accessRequirements",
                  "type": "textarea",
                  "rows": 1,
                  "disabled": true
                }
              ],
              "width": 12
            },
            {
              "components": [
                {
                  "input": true,
                  "tableView": false,
                  "label": "Study mode",
                  "hideLabel": true,
                  "optionsLabelPosition": "left",
                  "key": "modeOfStudyRadio",
                  "values": [
                    {
                      "value": "edit",
                      "label": "Study mode | Edit"
                    }
                  ],
                  "inline": true,
                  "protected": false,
                  "persistent": false,
                  "hidden": false,
                  "clearOnHide": false,
                  "validate": {
                    "required": false
                  },
                  "type": "radio",
                  "conditional": {
                    "show": "",
                    "when": null,
                    "eq": ""
                  }
                },
                {
                  "label": "HTML",
                  "tag": "br",
                  "attrs": [
                    {
                      "attr": "",
                      "value": ""
                    }
                  ],
                  "refreshOnChange": false,
                  "key": "html",
                  "type": "htmlelement",
                  "input": false,
                  "tableView": false
                },
                {
                  "label": "Study mode",
                  "hideLabel": true,
                  "autoExpand": false,
                  "spellcheck": true,
                  "tableView": true,
                  "conditional": {
                    "eq": "edit",
                    "when": "modeOfStudyRadio",
                    "show": "true"
                  },
                  "clearOnHide": false,
                  "validate": {
                    "unique": false,
                    "multiple": false
                  },
                  "key": "info.modeOfStudy",
                  "type": "textarea",
                  "wysiwyg": true,
                  "rows": 1,
                  "input": true
                },
                {
                  "label": "Study mode",
                  "hideLabel": true,
                  "autoExpand": false,
                  "spellcheck": true,
                  "tableView": true,
                  "conditional": {
                    "eq": "edit",
                    "when": "modeOfStudyRadio",
                    "show": "false"
                  },
                  "clearOnHide": false,
                  "validate": {
                    "unique": false,
                    "multiple": false
                  },
                  "key": "info.modeOfStudy",
                  "type": "textarea",
                  "rows": 1,
                  "disabled": true
                }
              ],
              "width": 12
            },
            {
              "components": [
                {
                  "input": true,
                  "tableView": false,
                  "label": "Degree requirements",
                  "hideLabel": true,
                  "optionsLabelPosition": "left",
                  "key": "degreeRequirementsRadio",
                  "values": [
                    {
                      "value": "edit",
                      "label": "Degree requirements | Edit"
                    }
                  ],
                  "inline": true,
                  "protected": false,
                  "persistent": false,
                  "hidden": false,
                  "clearOnHide": false,
                  "validate": {
                    "required": false
                  },
                  "type": "radio",
                  "conditional": {
                    "show": "",
                    "when": null,
                    "eq": ""
                  }
                },
                {
                  "label": "HTML",
                  "tag": "br",
                  "attrs": [
                    {
                      "attr": "",
                      "value": ""
                    }
                  ],
                  "refreshOnChange": false,
                  "key": "html",
                  "type": "htmlelement",
                  "input": false,
                  "tableView": false
                },
                {
                  "label": "Degree requirements",
                  "hideLabel": true,
                  "autoExpand": false,
                  "spellcheck": true,
                  "tableView": true,
                  "conditional": {
                    "eq": "edit",
                    "when": "degreeRequirementsRadio",
                    "show": "true"
                  },
                  "clearOnHide": false,
                  "validate": {
                    "unique": false,
                    "multiple": false
                  },
                  "key": "info.degreeRequirements",
                  "type": "textarea",
                  "wysiwyg": true,
                  "rows": 1,
                  "input": true
                },
                {
                  "label": "Degree requirements",
                  "hideLabel": true,
                  "autoExpand": false,
                  "spellcheck": true,
                  "tableView": true,
                  "conditional": {
                    "eq": "edit",
                    "when": "degreeRequirementsRadio",
                    "show": "false"
                  },
                  "clearOnHide": false,
                  "validate": {
                    "unique": false,
                    "multiple": false
                  },
                  "key": "info.degreeRequirements",
                  "type": "textarea",
                  "rows": 1,
                  "disabled": true
                }
              ],
              "width": 12
            },
            {
              "components": [
                {
                  "input": true,
                  "tableView": false,
                  "label": "Further study",
                  "hideLabel": true,
                  "optionsLabelPosition": "left",
                  "key": "accessToFurtherRadio",
                  "values": [
                    {
                      "value": "edit",
                      "label": "Further study | Edit"
                    }
                  ],
                  "inline": true,
                  "protected": false,
                  "persistent": false,
                  "hidden": false,
                  "clearOnHide": false,
                  "validate": {
                    "required": false
                  },
                  "type": "radio",
                  "conditional": {
                    "show": "",
                    "when": null,
                    "eq": ""
                  }
                },
                {
                  "label": "HTML",
                  "tag": "br",
                  "attrs": [
                    {
                      "attr": "",
                      "value": ""
                    }
                  ],
                  "refreshOnChange": false,
                  "key": "html",
                  "type": "htmlelement",
                  "input": false,
                  "tableView": false
                },
                {
                  "label": "Further study",
                  "hideLabel": true,
                  "autoExpand": false,
                  "spellcheck": true,
                  "tableView": true,
                  "conditional": {
                    "eq": "edit",
                    "when": "accessToFurtherRadio",
                    "show": "true"
                  },
                  "clearOnHide": false,
                  "validate": {
                    "unique": false,
                    "multiple": false
                  },
                  "key": "info.accessToFurther",
                  "type": "textarea",
                  "wysiwyg": true,
                  "rows": 1,
                  "input": true
                },
                {
                  "label": "Further study",
                  "hideLabel": true,
                  "autoExpand": false,
                  "spellcheck": true,
                  "tableView": true,
                  "conditional": {
                    "eq": "edit",
                    "when": "accessToFurtherRadio",
                    "show": "false"
                  },
                  "clearOnHide": false,
                  "validate": {
                    "unique": false,
                    "multiple": false
                  },
                  "key": "info.accessToFurther",
                  "type": "textarea",
                  "rows": 1,
                  "disabled": true
                }
              ],
              "width": 12
            },
            {
              "components": [
                {
                  "input": true,
                  "tableView": false,
                  "label": "Professional status",
                  "hideLabel": true,
                  "optionsLabelPosition": "left",
                  "key": "professionalStatusRadio",
                  "values": [
                    {
                      "value": "edit",
                      "label": "Professional status | Edit"
                    }
                  ],
                  "inline": true,
                  "protected": false,
                  "persistent": false,
                  "hidden": false,
                  "clearOnHide": false,
                  "validate": {
                    "required": false
                  },
                  "type": "radio",
                  "conditional": {
                    "show": "",
                    "when": null,
                    "eq": ""
                  }
                },
                {
                  "label": "HTML",
                  "tag": "br",
                  "attrs": [
                    {
                      "attr": "",
                      "value": ""
                    }
                  ],
                  "refreshOnChange": false,
                  "key": "html",
                  "type": "htmlelement",
                  "input": false,
                  "tableView": false
                },
                {
                  "label": "Professional status",
                  "hideLabel": true,
                  "autoExpand": false,
                  "spellcheck": true,
                  "tableView": true,
                  "conditional": {
                    "eq": "edit",
                    "when": "professionalStatusRadio",
                    "show": "true"
                  },
                  "clearOnHide": false,
                  "validate": {
                    "unique": false,
                    "multiple": false
                  },
                  "key": "info.professionalStatus",
                  "type": "textarea",
                  "wysiwyg": true,
                  "rows": 1,
                  "input": true
                },
                {
                  "label": "Professional status",
                  "hideLabel": true,
                  "autoExpand": false,
                  "spellcheck": true,
                  "tableView": true,
                  "conditional": {
                    "eq": "edit",
                    "when": "professionalStatusRadio",
                    "show": "false"
                  },
                  "clearOnHide": false,
                  "validate": {
                    "unique": false,
                    "multiple": false
                  },
                  "key": "info.professionalStatus",
                  "type": "textarea",
                  "rows": 1,
                  "disabled": true
                }
              ],
              "width": 12
            },
            {
              "components": [
                {
                  "input": true,
                  "tableView": false,
                  "label": "Grading scheme",
                  "hideLabel": true,
                  "optionsLabelPosition": "left",
                  "key": "gradingSchemeRadio",
                  "values": [
                    {
                      "value": "edit",
                      "label": "Grading scheme | Edit"
                    }
                  ],
                  "inline": true,
                  "protected": false,
                  "persistent": false,
                  "hidden": false,
                  "clearOnHide": false,
                  "validate": {
                    "required": false
                  },
                  "type": "radio",
                  "conditional": {
                    "show": "",
                    "when": null,
                    "eq": ""
                  }
                },
                {
                  "label": "HTML",
                  "tag": "br",
                  "attrs": [
                    {
                      "attr": "",
                      "value": ""
                    }
                  ],
                  "refreshOnChange": false,
                  "key": "html",
                  "type": "htmlelement",
                  "input": false,
                  "tableView": false
                },
                {
                  "label": "Grading scheme",
                  "hideLabel": true,
                  "autoExpand": false,
                  "spellcheck": true,
                  "tableView": true,
                  "conditional": {
                    "eq": "edit",
                    "when": "gradingSchemeRadio",
                    "show": "true"
                  },
                  "clearOnHide": false,
                  "validate": {
                    "unique": false,
                    "multiple": false
                  },
                  "key": "info.gradingScheme",
                  "type": "textarea",
                  "wysiwyg": true,
                  "rows": 1,
                  "input": true
                },
                {
                  "label": "Grading scheme",
                  "hideLabel": true,
                  "autoExpand": false,
                  "spellcheck": true,
                  "tableView": true,
                  "conditional": {
                    "eq": "edit",
                    "when": "gradingSchemeRadio",
                    "show": "false"
                  },
                  "clearOnHide": false,
                  "validate": {
                    "unique": false,
                    "multiple": false
                  },
                  "key": "info.gradingScheme",
                  "type": "textarea",
                  "rows": 1,
                  "disabled": true
                }
              ],
              "width": 12
            },
            {
              "components": [
                {
                  "input": true,
                  "tableView": false,
                  "label": "Other Info",
                  "hideLabel": true,
                  "optionsLabelPosition": "left",
                  "key": "otherInfoRadio",
                  "values": [
                    {
                      "value": "edit",
                      "label": "Other Info | Edit"
                    }
                  ],
                  "inline": true,
                  "protected": false,
                  "persistent": false,
                  "hidden": false,
                  "clearOnHide": false,
                  "validate": {
                    "required": false
                  },
                  "type": "radio",
                  "conditional": {
                    "show": "",
                    "when": null,
                    "eq": ""
                  }
                },
                {
                  "label": "HTML",
                  "tag": "br",
                  "attrs": [
                    {
                      "attr": "",
                      "value": ""
                    }
                  ],
                  "refreshOnChange": false,
                  "key": "html",
                  "type": "htmlelement",
                  "input": false,
                  "tableView": false
                },
                {
                  "label": "Other Info",
                  "hideLabel": true,
                  "autoExpand": false,
                  "spellcheck": true,
                  "tableView": true,
                  "conditional": {
                    "eq": "edit",
                    "when": "otherInfoRadio",
                    "show": "true"
                  },
                  "clearOnHide": false,
                  "validate": {
                    "unique": false,
                    "multiple": false
                  },
                  "key": "info.otherInfo",
                  "type": "textarea",
                  "wysiwyg": true,
                  "rows": 1,
                  "input": true
                },
                {
                  "label": "Other Info",
                  "hideLabel": true,
                  "autoExpand": false,
                  "spellcheck": true,
                  "tableView": true,
                  "conditional": {
                    "eq": "edit",
                    "when": "otherInfoRadio",
                    "show": "false"
                  },
                  "clearOnHide": false,
                  "validate": {
                    "unique": false,
                    "multiple": false
                  },
                  "key": "info.otherInfo",
                  "type": "textarea",
                  "rows": 1,
                  "disabled": true
                }
              ],
              "width": 12
            },
            {
              "components": [
                {
                  "input": true,
                  "tableView": false,
                  "label": "Further Info",
                  "hideLabel": true,
                  "optionsLabelPosition": "left",
                  "key": "furtherInfoRadio",
                  "values": [
                    {
                      "value": "edit",
                      "label": "Further Info | Edit"
                    }
                  ],
                  "inline": true,
                  "protected": false,
                  "persistent": false,
                  "hidden": false,
                  "clearOnHide": false,
                  "validate": {
                    "required": false
                  },
                  "type": "radio",
                  "conditional": {
                    "show": "",
                    "when": null,
                    "eq": ""
                  }
                },
                {
                  "label": "HTML",
                  "tag": "br",
                  "attrs": [
                    {
                      "attr": "",
                      "value": ""
                    }
                  ],
                  "refreshOnChange": false,
                  "key": "html",
                  "type": "htmlelement",
                  "input": false,
                  "tableView": false
                },
                {
                  "label": "Further Info",
                  "hideLabel": true,
                  "autoExpand": false,
                  "spellcheck": true,
                  "tableView": true,
                  "conditional": {
                    "eq": "edit",
                    "when": "furtherInfoRadio",
                    "show": "true"
                  },
                  "clearOnHide": false,
                  "validate": {
                    "unique": false,
                    "multiple": false
                  },
                  "key": "info.furtherInfo",
                  "type": "textarea",
                  "wysiwyg": true,
                  "rows": 1,
                  "input": true
                },
                {
                  "label": "Further Info",
                  "hideLabel": true,
                  "autoExpand": false,
                  "spellcheck": true,
                  "tableView": true,
                  "conditional": {
                    "eq": "edit",
                    "when": "furtherInfoRadio",
                    "show": "false"
                  },
                  "clearOnHide": false,
                  "validate": {
                    "unique": false,
                    "multiple": false
                  },
                  "key": "info.furtherInfo",
                  "type": "textarea",
                  "rows": 1,
                  "disabled": true
                }
              ],
              "width": 12
            },
            {
              "components": [
                {
                  "input": true,
                  "tableView": false,
                  "label": "Language Of Instruction",
                  "hideLabel": true,
                  "optionsLabelPosition": "left",
                  "key": "languageOfInstructionRadio",
                  "values": [
                    {
                      "value": "edit",
                      "label": "Language Of Instruction | Edit"
                    }
                  ],
                  "inline": true,
                  "protected": false,
                  "persistent": false,
                  "hidden": false,
                  "clearOnHide": false,
                  "validate": {
                    "required": false
                  },
                  "type": "radio",
                  "conditional": {
                    "show": "",
                    "when": null,
                    "eq": ""
                  }
                },
                {
                  "label": "HTML",
                  "tag": "br",
                  "attrs": [
                    {
                      "attr": "",
                      "value": ""
                    }
                  ],
                  "refreshOnChange": false,
                  "key": "html",
                  "type": "htmlelement",
                  "input": false,
                  "tableView": false
                },
                {
                  "label": "Language Of Instruction",
                  "hideLabel": true,
                  "autoExpand": false,
                  "spellcheck": true,
                  "tableView": true,
                  "conditional": {
                    "eq": "edit",
                    "when": "languageOfInstructionRadio",
                    "show": "true"
                  },
                  "clearOnHide": false,
                  "validate": {
                    "unique": false,
                    "multiple": false
                  },
                  "key": "info.languageOfInstruction",
                  "type": "textarea",
                  "wysiwyg": true,
                  "rows": 1,
                  "input": true
                },
                {
                  "label": "Language Of Instruction",
                  "hideLabel": true,
                  "autoExpand": false,
                  "spellcheck": true,
                  "tableView": true,
                  "conditional": {
                    "eq": "edit",
                    "when": "languageOfInstructionRadio",
                    "show": "false"
                  },
                  "clearOnHide": false,
                  "validate": {
                    "unique": false,
                    "multiple": false
                  },
                  "key": "info.languageOfInstruction",
                  "type": "textarea",
                  "rows": 1,
                  "disabled": true
                }
              ],
              "width": 12
            },
            {
              "components": [
                {
                  "input": true,
                  "tableView": false,
                  "label": "Study program requirements",
                  "hideLabel": true,
                  "optionsLabelPosition": "left",
                  "key": "programRequirementsRadio",
                  "values": [
                    {
                      "value": "edit",
                      "label": "Study program requirements | Edit"
                    }
                  ],
                  "inline": true,
                  "protected": false,
                  "persistent": false,
                  "hidden": false,
                  "clearOnHide": false,
                  "validate": {
                    "required": false
                  },
                  "type": "radio",
                  "conditional": {
                    "show": "",
                    "when": null,
                    "eq": ""
                  }
                },
                {
                  "label": "HTML",
                  "tag": "br",
                  "attrs": [
                    {
                      "attr": "",
                      "value": ""
                    }
                  ],
                  "refreshOnChange": false,
                  "key": "html",
                  "type": "htmlelement",
                  "input": false,
                  "tableView": false
                },
                {
                  "label": "Study program requirements",
                  "hideLabel": true,
                  "autoExpand": false,
                  "spellcheck": true,
                  "tableView": true,
                  "conditional": {
                    "eq": "edit",
                    "when": "programRequirementsRadio",
                    "show": "true"
                  },
                  "clearOnHide": false,
                  "validate": {
                    "unique": false,
                    "multiple": false
                  },
                  "key": "info.programRequirements",
                  "type": "textarea",
                  "wysiwyg": true,
                  "rows": 1,
                  "input": true
                },
                {
                  "label": "Study program requirements",
                  "hideLabel": true,
                  "autoExpand": false,
                  "spellcheck": true,
                  "tableView": true,
                  "conditional": {
                    "eq": "edit",
                    "when": "programRequirementsRadio",
                    "show": "false"
                  },
                  "clearOnHide": false,
                  "validate": {
                    "unique": false,
                    "multiple": false
                  },
                  "key": "info.programRequirements",
                  "type": "textarea",
                  "rows": 1,
                  "disabled": true
                }
              ],
              "width": 12
            },
            {
              "components": [
                {
                  "input": true,
                  "tableView": false,
                  "label": "Field of study",
                  "hideLabel": true,
                  "optionsLabelPosition": "left",
                  "key": "fieldOfStudyRadio",
                  "values": [
                    {
                      "value": "edit",
                      "label": "Field of study | Edit"
                    }
                  ],
                  "inline": true,
                  "protected": false,
                  "persistent": false,
                  "hidden": false,
                  "clearOnHide": false,
                  "validate": {
                    "required": false
                  },
                  "type": "radio",
                  "conditional": {
                    "show": "",
                    "when": null,
                    "eq": ""
                  }
                },
                {
                  "label": "HTML",
                  "tag": "br",
                  "attrs": [
                    {
                      "attr": "",
                      "value": ""
                    }
                  ],
                  "refreshOnChange": false,
                  "key": "html",
                  "type": "htmlelement",
                  "input": false,
                  "tableView": false
                },
                {
                  "label": "Field of study",
                  "hideLabel": true,
                  "autoExpand": false,
                  "spellcheck": true,
                  "tableView": true,
                  "conditional": {
                    "eq": "edit",
                    "when": "fieldOfStudyRadio",
                    "show": "true"
                  },
                  "clearOnHide": false,
                  "validate": {
                    "unique": false,
                    "multiple": false
                  },
                  "key": "info.fieldOfStudy",
                  "type": "textarea",
                  "wysiwyg": true,
                  "rows": 1,
                  "input": true
                },
                {
                  "label": "Field of study",
                  "hideLabel": true,
                  "autoExpand": false,
                  "spellcheck": true,
                  "tableView": true,
                  "conditional": {
                    "eq": "edit",
                    "when": "fieldOfStudyRadio",
                    "show": "false"
                  },
                  "clearOnHide": false,
                  "validate": {
                    "unique": false,
                    "multiple": false
                  },
                  "key": "info.fieldOfStudy",
                  "type": "textarea",
                  "rows": 1,
                  "disabled": true
                }
              ],
              "width": 12
            }
          ]
        },
        {
          "legend": "Other languages",
          "key": "fieldSet",
          "type": "fieldset",
          "input": false,
          "label": "Other languages",
          "components": [
            {
              "label": "",
              "hideLabel": true,
              "key": "info.locales",
              "type": "datagrid",
              "disableAddingRemovingRows": true,
              "input": true,
              "customClass": "fix-panel-for-locales",
              "components": [
                {
                  "collapsible": false,
                  "hideLabel": true,
                  "key": "panel",
                  "type": "panel",
                  "title": "",
                  "hideTitle": true,
                  "input": false,
                  "tableView": false,
                  "components": [
                    {
                      "label": "Language",
                      "tableView": true,
                      "key": "inLanguage",
                      "disabled": "true",
                      "type": "textfield",
                      "input": true
                    },
                    {
                      "label": "Degree description",
                      "tableView": true,
                      "key": "degreeDescription",
                      "type": "textfield",
                      "input": true
                    },
                    {
                      "label": "Other name",
                      "tableView": true,
                      "key": "otherName",
                      "type": "textfield",
                      "input": true
                    },
                    {
                      "label": "Notes",
                      "tableView": true,
                      "key": "notes",
                      "type": "textarea",
                      "input": true
                    },
                    {
                      "input": true,
                      "tableView": false,
                      "label": "Official duration",
                      "hideLabel": true,
                      "optionsLabelPosition": "left",
                      "key": "officialDurationRadio",
                      "values": [
                        {
                          "value": "edit",
                          "label": "Official duration | Edit"
                        }
                      ],
                      "inline": true,
                      "protected": false,
                      "persistent": false,
                      "hidden": false,
                      "clearOnHide": false,
                      "validate": {
                        "required": false
                      },
                      "type": "radio",
                      "conditional": {
                        "show": "",
                        "when": null,
                        "eq": ""
                      }
                    },
                    {
                      "label": "HTML",
                      "tag": "br",
                      "attrs": [
                        {
                          "attr": "",
                          "value": ""
                        }
                      ],
                      "refreshOnChange": false,
                      "key": "html",
                      "type": "htmlelement",
                      "input": false,
                      "tableView": false
                    },
                    {
                      "label": "Official duration",
                      "hideLabel": true,
                      "clearOnHide": false,
                      "autoExpand": false,
                      "spellcheck": true,
                      "tableView": true,
                      "conditional": {
                        "eq": "edit",
                        "when": "officialDurationRadio",
                        "show": "true"
                      },
                      "validate": {
                        "unique": false,
                        "multiple": false
                      },
                      "key": "officialDuration",
                      "type": "textarea",
                      "wysiwyg": true,
                      "rows": 1,
                      "input": true
                    },
                    {
                      "label": "Official duration",
                      "hideLabel": true,
                      "clearOnHide": false,
                      "autoExpand": false,
                      "spellcheck": true,
                      "tableView": true,
                      "conditional": {
                        "eq": "edit",
                        "when": "officialDurationRadio",
                        "show": "false"
                      },
                      "validate": {
                        "unique": false,
                        "multiple": false
                      },
                      "key": "officialDuration",
                      "type": "textarea",
                      "rows": 1,
                      "input": true,
                      "disabled": true
                    },
                    {
                      "input": true,
                      "tableView": false,
                      "label": "Access requirements",
                      "hideLabel": true,
                      "optionsLabelPosition": "left",
                      "key": "accessRequirementsRadio",
                      "values": [
                        {
                          "value": "edit",
                          "label": "Access requirements | Edit"
                        }
                      ],
                      "inline": true,
                      "protected": false,
                      "persistent": false,
                      "hidden": false,
                      "clearOnHide": false,
                      "validate": {
                        "required": false
                      },
                      "type": "radio",
                      "conditional": {
                        "show": "",
                        "when": null,
                        "eq": ""
                      }
                    },
                    {
                      "label": "HTML",
                      "tag": "br",
                      "attrs": [
                        {
                          "attr": "",
                          "value": ""
                        }
                      ],
                      "refreshOnChange": false,
                      "key": "html",
                      "type": "htmlelement",
                      "input": false,
                      "tableView": false
                    },
                    {
                      "label": "Access requirements",
                      "hideLabel": true,
                      "clearOnHide": false,
                      "autoExpand": false,
                      "spellcheck": true,
                      "tableView": true,
                      "conditional": {
                        "eq": "edit",
                        "when": "accessRequirementsRadio",
                        "show": "true"
                      },
                      "validate": {
                        "unique": false,
                        "multiple": false
                      },
                      "key": "accessRequirements",
                      "type": "textarea",
                      "wysiwyg": true,
                      "rows": 1,
                      "input": true
                    },
                    {
                      "label": "Access requirements",
                      "hideLabel": true,
                      "clearOnHide": false,
                      "autoExpand": false,
                      "spellcheck": true,
                      "tableView": true,
                      "conditional": {
                        "eq": "edit",
                        "when": "accessRequirementsRadio",
                        "show": "false"
                      },
                      "validate": {
                        "unique": false,
                        "multiple": false
                      },
                      "key": "accessRequirements",
                      "type": "textarea",
                      "rows": 1,
                      "input": true,
                      "disabled": true
                    },
                    {
                      "input": true,
                      "tableView": false,
                      "label": "Study mode",
                      "hideLabel": true,
                      "optionsLabelPosition": "left",
                      "key": "modeOfStudyRadio",
                      "values": [
                        {
                          "value": "edit",
                          "label": "Study mode | Edit"
                        }
                      ],
                      "inline": true,
                      "protected": false,
                      "persistent": false,
                      "hidden": false,
                      "clearOnHide": false,
                      "validate": {
                        "required": false
                      },
                      "type": "radio",
                      "conditional": {
                        "show": "",
                        "when": null,
                        "eq": ""
                      }
                    },
                    {
                      "label": "HTML",
                      "tag": "br",
                      "attrs": [
                        {
                          "attr": "",
                          "value": ""
                        }
                      ],
                      "refreshOnChange": false,
                      "key": "html",
                      "type": "htmlelement",
                      "input": false,
                      "tableView": false
                    },
                    {
                      "label": "Study mode",
                      "hideLabel": true,
                      "clearOnHide": false,
                      "autoExpand": false,
                      "spellcheck": true,
                      "tableView": true,
                      "conditional": {
                        "eq": "edit",
                        "when": "modeOfStudyRadio",
                        "show": "true"
                      },
                      "validate": {
                        "unique": false,
                        "multiple": false
                      },
                      "key": "modeOfStudy",
                      "type": "textarea",
                      "wysiwyg": true,
                      "rows": 1,
                      "input": true
                    },
                    {
                      "label": "Study mode",
                      "hideLabel": true,
                      "clearOnHide": false,
                      "autoExpand": false,
                      "spellcheck": true,
                      "tableView": true,
                      "conditional": {
                        "eq": "edit",
                        "when": "modeOfStudyRadio",
                        "show": "false"
                      },
                      "validate": {
                        "unique": false,
                        "multiple": false
                      },
                      "key": "modeOfStudy",
                      "type": "textarea",
                      "rows": 1,
                      "input": true,
                      "disabled": true
                    },
                    {
                      "input": true,
                      "tableView": false,
                      "label": "Degree requirements",
                      "hideLabel": true,
                      "optionsLabelPosition": "left",
                      "key": "degreeRequirementsRadio",
                      "values": [
                        {
                          "value": "edit",
                          "label": "Degree requirements | Edit"
                        }
                      ],
                      "inline": true,
                      "protected": false,
                      "persistent": false,
                      "hidden": false,
                      "clearOnHide": false,
                      "validate": {
                        "required": false
                      },
                      "type": "radio",
                      "conditional": {
                        "show": "",
                        "when": null,
                        "eq": ""
                      }
                    },
                    {
                      "label": "HTML",
                      "tag": "br",
                      "attrs": [
                        {
                          "attr": "",
                          "value": ""
                        }
                      ],
                      "refreshOnChange": false,
                      "key": "html",
                      "type": "htmlelement",
                      "input": false,
                      "tableView": false
                    },
                    {
                      "label": "Degree requirements",
                      "hideLabel": true,
                      "clearOnHide": false,
                      "autoExpand": false,
                      "spellcheck": true,
                      "tableView": true,
                      "conditional": {
                        "eq": "edit",
                        "when": "degreeRequirementsRadio",
                        "show": "true"
                      },
                      "validate": {
                        "unique": false,
                        "multiple": false
                      },
                      "key": "degreeRequirements",
                      "type": "textarea",
                      "wysiwyg": true,
                      "rows": 1,
                      "input": true
                    },
                    {
                      "label": "Degree requirements",
                      "hideLabel": true,
                      "clearOnHide": false,
                      "autoExpand": false,
                      "spellcheck": true,
                      "tableView": true,
                      "conditional": {
                        "eq": "edit",
                        "when": "degreeRequirementsRadio",
                        "show": "false"
                      },
                      "validate": {
                        "unique": false,
                        "multiple": false
                      },
                      "key": "degreeRequirements",
                      "type": "textarea",
                      "rows": 1,
                      "input": true,
                      "disabled": true
                    },
                    {
                      "input": true,
                      "tableView": false,
                      "label": "Further study",
                      "hideLabel": true,
                      "optionsLabelPosition": "left",
                      "key": "accessToFurtherRadio",
                      "values": [
                        {
                          "value": "edit",
                          "label": "Further study | Edit"
                        }
                      ],
                      "inline": true,
                      "protected": false,
                      "persistent": false,
                      "hidden": false,
                      "clearOnHide": false,
                      "validate": {
                        "required": false
                      },
                      "type": "radio",
                      "conditional": {
                        "show": "",
                        "when": null,
                        "eq": ""
                      }
                    },
                    {
                      "label": "HTML",
                      "tag": "br",
                      "attrs": [
                        {
                          "attr": "",
                          "value": ""
                        }
                      ],
                      "refreshOnChange": false,
                      "key": "html",
                      "type": "htmlelement",
                      "input": false,
                      "tableView": false
                    },
                    {
                      "label": "Further study",
                      "hideLabel": true,
                      "clearOnHide": false,
                      "autoExpand": false,
                      "spellcheck": true,
                      "tableView": true,
                      "conditional": {
                        "eq": "edit",
                        "when": "accessToFurtherRadio",
                        "show": "true"
                      },
                      "validate": {
                        "unique": false,
                        "multiple": false
                      },
                      "key": "accessToFurther",
                      "type": "textarea",
                      "wysiwyg": true,
                      "rows": 1,
                      "input": true
                    },
                    {
                      "label": "Further study",
                      "hideLabel": true,
                      "clearOnHide": false,
                      "autoExpand": false,
                      "spellcheck": true,
                      "tableView": true,
                      "conditional": {
                        "eq": "edit",
                        "when": "accessToFurtherRadio",
                        "show": "false"
                      },
                      "validate": {
                        "unique": false,
                        "multiple": false
                      },
                      "key": "accessToFurther",
                      "type": "textarea",
                      "rows": 1,
                      "input": true,
                      "disabled": true
                    },
                    {
                      "input": true,
                      "tableView": false,
                      "label": "Professional status",
                      "hideLabel": true,
                      "optionsLabelPosition": "left",
                      "key": "professionalStatusRadio",
                      "values": [
                        {
                          "value": "edit",
                          "label": "Professional status | Edit"
                        }
                      ],
                      "inline": true,
                      "protected": false,
                      "persistent": false,
                      "hidden": false,
                      "clearOnHide": false,
                      "validate": {
                        "required": false
                      },
                      "type": "radio",
                      "conditional": {
                        "show": "",
                        "when": null,
                        "eq": ""
                      }
                    },
                    {
                      "label": "HTML",
                      "tag": "br",
                      "attrs": [
                        {
                          "attr": "",
                          "value": ""
                        }
                      ],
                      "refreshOnChange": false,
                      "key": "html",
                      "type": "htmlelement",
                      "input": false,
                      "tableView": false
                    },
                    {
                      "label": "Professional status",
                      "hideLabel": true,
                      "clearOnHide": false,
                      "autoExpand": false,
                      "spellcheck": true,
                      "tableView": true,
                      "conditional": {
                        "eq": "edit",
                        "when": "professionalStatusRadio",
                        "show": "true"
                      },
                      "validate": {
                        "unique": false,
                        "multiple": false
                      },
                      "key": "professionalStatus",
                      "type": "textarea",
                      "wysiwyg": true,
                      "rows": 1,
                      "input": true
                    },
                    {
                      "label": "Professional status",
                      "hideLabel": true,
                      "clearOnHide": false,
                      "autoExpand": false,
                      "spellcheck": true,
                      "tableView": true,
                      "conditional": {
                        "eq": "edit",
                        "when": "professionalStatusRadio",
                        "show": "false"
                      },
                      "validate": {
                        "unique": false,
                        "multiple": false
                      },
                      "key": "professionalStatus",
                      "type": "textarea",
                      "rows": 1,
                      "input": true,
                      "disabled": true
                    },
                    {
                      "input": true,
                      "tableView": false,
                      "label": "Grading scheme",
                      "hideLabel": true,
                      "optionsLabelPosition": "left",
                      "key": "gradingSchemeRadio",
                      "values": [
                        {
                          "value": "edit",
                          "label": "Grading scheme | Edit"
                        }
                      ],
                      "inline": true,
                      "protected": false,
                      "persistent": false,
                      "hidden": false,
                      "clearOnHide": false,
                      "validate": {
                        "required": false
                      },
                      "type": "radio",
                      "conditional": {
                        "show": "",
                        "when": null,
                        "eq": ""
                      }
                    },
                    {
                      "label": "HTML",
                      "tag": "br",
                      "attrs": [
                        {
                          "attr": "",
                          "value": ""
                        }
                      ],
                      "refreshOnChange": false,
                      "key": "html",
                      "type": "htmlelement",
                      "input": false,
                      "tableView": false
                    },
                    {
                      "label": "Grading scheme",
                      "hideLabel": true,
                      "clearOnHide": false,
                      "autoExpand": false,
                      "spellcheck": true,
                      "tableView": true,
                      "conditional": {
                        "eq": "edit",
                        "when": "gradingSchemeRadio",
                        "show": "true"
                      },
                      "validate": {
                        "unique": false,
                        "multiple": false
                      },
                      "key": "gradingScheme",
                      "type": "textarea",
                      "wysiwyg": true,
                      "rows": 1,
                      "input": true
                    },
                    {
                      "label": "Grading scheme",
                      "hideLabel": true,
                      "clearOnHide": false,
                      "autoExpand": false,
                      "spellcheck": true,
                      "tableView": true,
                      "conditional": {
                        "eq": "edit",
                        "when": "gradingSchemeRadio",
                        "show": "false"
                      },
                      "validate": {
                        "unique": false,
                        "multiple": false
                      },
                      "key": "gradingScheme",
                      "type": "textarea",
                      "rows": 1,
                      "input": true,
                      "disabled": true
                    },
                    {
                      "input": true,
                      "tableView": false,
                      "label": "Other Info",
                      "hideLabel": true,
                      "optionsLabelPosition": "left",
                      "key": "otherInfoRadio",
                      "values": [
                        {
                          "value": "edit",
                          "label": "Other Info | Edit"
                        }
                      ],
                      "inline": true,
                      "protected": false,
                      "persistent": false,
                      "hidden": false,
                      "clearOnHide": false,
                      "validate": {
                        "required": false
                      },
                      "type": "radio",
                      "conditional": {
                        "show": "",
                        "when": null,
                        "eq": ""
                      }
                    },
                    {
                      "label": "HTML",
                      "tag": "br",
                      "attrs": [
                        {
                          "attr": "",
                          "value": ""
                        }
                      ],
                      "refreshOnChange": false,
                      "key": "html",
                      "type": "htmlelement",
                      "input": false,
                      "tableView": false
                    },
                    {
                      "label": "Other Info",
                      "hideLabel": true,
                      "clearOnHide": false,
                      "autoExpand": false,
                      "spellcheck": true,
                      "tableView": true,
                      "conditional": {
                        "eq": "edit",
                        "when": "otherInfoRadio",
                        "show": "true"
                      },
                      "validate": {
                        "unique": false,
                        "multiple": false
                      },
                      "key": "otherInfo",
                      "type": "textarea",
                      "wysiwyg": true,
                      "rows": 1,
                      "input": true
                    },
                    {
                      "label": "Other Info",
                      "hideLabel": true,
                      "clearOnHide": false,
                      "autoExpand": false,
                      "spellcheck": true,
                      "tableView": true,
                      "conditional": {
                        "eq": "edit",
                        "when": "otherInfoRadio",
                        "show": "false"
                      },
                      "validate": {
                        "unique": false,
                        "multiple": false
                      },
                      "key": "otherInfo",
                      "type": "textarea",
                      "rows": 1,
                      "input": true,
                      "disabled": true
                    },
                    {
                      "input": true,
                      "tableView": false,
                      "label": "Further Info",
                      "hideLabel": true,
                      "optionsLabelPosition": "left",
                      "key": "furtherInfoRadio",
                      "values": [
                        {
                          "value": "edit",
                          "label": "Further Info | Edit"
                        }
                      ],
                      "inline": true,
                      "protected": false,
                      "persistent": false,
                      "hidden": false,
                      "clearOnHide": false,
                      "validate": {
                        "required": false
                      },
                      "type": "radio",
                      "conditional": {
                        "show": "",
                        "when": null,
                        "eq": ""
                      }
                    },
                    {
                      "label": "HTML",
                      "tag": "br",
                      "attrs": [
                        {
                          "attr": "",
                          "value": ""
                        }
                      ],
                      "refreshOnChange": false,
                      "key": "html",
                      "type": "htmlelement",
                      "input": false,
                      "tableView": false
                    },
                    {
                      "label": "Further Info",
                      "hideLabel": true,
                      "clearOnHide": false,
                      "autoExpand": false,
                      "spellcheck": true,
                      "tableView": true,
                      "conditional": {
                        "eq": "edit",
                        "when": "furtherInfoRadio",
                        "show": "true"
                      },
                      "validate": {
                        "unique": false,
                        "multiple": false
                      },
                      "key": "furtherInfo",
                      "type": "textarea",
                      "wysiwyg": true,
                      "rows": 1,
                      "input": true
                    },
                    {
                      "label": "Further Info",
                      "hideLabel": true,
                      "clearOnHide": false,
                      "autoExpand": false,
                      "spellcheck": true,
                      "tableView": true,
                      "conditional": {
                        "eq": "edit",
                        "when": "furtherInfoRadio",
                        "show": "false"
                      },
                      "validate": {
                        "unique": false,
                        "multiple": false
                      },
                      "key": "furtherInfo",
                      "type": "textarea",
                      "rows": 1,
                      "input": true,
                      "disabled": true
                    },
                    {
                      "input": true,
                      "tableView": false,
                      "label": "Language Of Instruction",
                      "hideLabel": true,
                      "optionsLabelPosition": "left",
                      "key": "languageOfInstructionRadio",
                      "values": [
                        {
                          "value": "edit",
                          "label": "Language Of Instruction | Edit"
                        }
                      ],
                      "inline": true,
                      "protected": false,
                      "persistent": false,
                      "hidden": false,
                      "clearOnHide": false,
                      "validate": {
                        "required": false
                      },
                      "type": "radio",
                      "conditional": {
                        "show": "",
                        "when": null,
                        "eq": ""
                      }
                    },
                    {
                      "label": "HTML",
                      "tag": "br",
                      "attrs": [
                        {
                          "attr": "",
                          "value": ""
                        }
                      ],
                      "refreshOnChange": false,
                      "key": "html",
                      "type": "htmlelement",
                      "input": false,
                      "tableView": false
                    },
                    {
                      "label": "Language Of Instruction",
                      "hideLabel": true,
                      "clearOnHide": false,
                      "autoExpand": false,
                      "spellcheck": true,
                      "tableView": true,
                      "conditional": {
                        "eq": "edit",
                        "when": "languageOfInstructionRadio",
                        "show": "true"
                      },
                      "validate": {
                        "unique": false,
                        "multiple": false
                      },
                      "key": "languageOfInstruction",
                      "type": "textarea",
                      "wysiwyg": true,
                      "rows": 1,
                      "input": true
                    },
                    {
                      "label": "Language Of Instruction",
                      "hideLabel": true,
                      "clearOnHide": false,
                      "autoExpand": false,
                      "spellcheck": true,
                      "tableView": true,
                      "conditional": {
                        "eq": "edit",
                        "when": "languageOfInstructionRadio",
                        "show": "false"
                      },
                      "validate": {
                        "unique": false,
                        "multiple": false
                      },
                      "key": "languageOfInstruction",
                      "type": "textarea",
                      "rows": 1,
                      "input": true,
                      "disabled": true
                    },
                    {
                      "input": true,
                      "tableView": false,
                      "label": "Study program requirements",
                      "hideLabel": true,
                      "optionsLabelPosition": "left",
                      "key": "programRequirementsRadio",
                      "values": [
                        {
                          "value": "edit",
                          "label": "Study program requirements | Edit"
                        }
                      ],
                      "inline": true,
                      "protected": false,
                      "persistent": false,
                      "hidden": false,
                      "clearOnHide": false,
                      "validate": {
                        "required": false
                      },
                      "type": "radio",
                      "conditional": {
                        "show": "",
                        "when": null,
                        "eq": ""
                      }
                    },
                    {
                      "label": "HTML",
                      "tag": "br",
                      "attrs": [
                        {
                          "attr": "",
                          "value": ""
                        }
                      ],
                      "refreshOnChange": false,
                      "key": "html",
                      "type": "htmlelement",
                      "input": false,
                      "tableView": false
                    },
                    {
                      "label": "Study program requirements",
                      "hideLabel": true,
                      "clearOnHide": false,
                      "autoExpand": false,
                      "spellcheck": true,
                      "tableView": true,
                      "conditional": {
                        "eq": "edit",
                        "when": "programRequirementsRadio",
                        "show": "true"
                      },
                      "validate": {
                        "unique": false,
                        "multiple": false
                      },
                      "key": "programRequirements",
                      "type": "textarea",
                      "wysiwyg": true,
                      "rows": 1,
                      "input": true
                    },
                    {
                      "label": "Study program requirements",
                      "hideLabel": true,
                      "clearOnHide": false,
                      "autoExpand": false,
                      "spellcheck": true,
                      "tableView": true,
                      "conditional": {
                        "eq": "edit",
                        "when": "programRequirementsRadio",
                        "show": "false"
                      },
                      "validate": {
                        "unique": false,
                        "multiple": false
                      },
                      "key": "programRequirements",
                      "type": "textarea",
                      "rows": 1,
                      "input": true,
                      "disabled": true
                    },
                    {
                      "input": true,
                      "tableView": false,
                      "label": "Field of study",
                      "hideLabel": true,
                      "optionsLabelPosition": "left",
                      "key": "fieldOfStudyRadio",
                      "values": [
                        {
                          "value": "edit",
                          "label": "Field of study | Edit"
                        }
                      ],
                      "inline": true,
                      "protected": false,
                      "persistent": false,
                      "hidden": false,
                      "clearOnHide": false,
                      "validate": {
                        "required": false
                      },
                      "type": "radio",
                      "conditional": {
                        "show": "",
                        "when": null,
                        "eq": ""
                      }
                    },
                    {
                      "label": "HTML",
                      "tag": "br",
                      "attrs": [
                        {
                          "attr": "",
                          "value": ""
                        }
                      ],
                      "refreshOnChange": false,
                      "key": "html",
                      "type": "htmlelement",
                      "input": false,
                      "tableView": false
                    },
                    {
                      "label": "Field of study",
                      "hideLabel": true,
                      "clearOnHide": false,
                      "autoExpand": false,
                      "spellcheck": true,
                      "tableView": true,
                      "conditional": {
                        "eq": "edit",
                        "when": "fieldOfStudyRadio",
                        "show": "true"
                      },
                      "validate": {
                        "unique": false,
                        "multiple": false
                      },
                      "key": "fieldOfStudy",
                      "type": "textarea",
                      "wysiwyg": true,
                      "rows": 1,
                      "input": true
                    },
                    {
                      "label": "Field of study",
                      "hideLabel": true,
                      "clearOnHide": false,
                      "autoExpand": false,
                      "spellcheck": true,
                      "tableView": true,
                      "conditional": {
                        "eq": "edit",
                        "when": "fieldOfStudyRadio",
                        "show": "false"
                      },
                      "validate": {
                        "unique": false,
                        "multiple": false
                      },
                      "key": "fieldOfStudy",
                      "type": "textarea",
                      "rows": 1,
                      "input": true,
                      "disabled": true
                    }
                  ]
                }
              ]
            }
          ]
        }
      ]
    },
    {
      "type": "button",
      "label": "Submit",
      "key": "submit",
      "disableOnInvalid": true,
      "input": true
    }
  ]
}
